                         Brand|       Capacity|          Price|               Value
-------------------------------------------------------------------------------------
                       Toshiba|            750|           14.5|               10875
                            WD|            750|           15.5|               11625
                            WD|            750|          19.99|               14992
                       Hitachi|            750|          28.99|               21742
                       Samsung|            750|           29.5|               22125
                       WD Thin|           1000|          26.99|               26990
                       Hitachi|           1000|          32.69|               32690
                       Toshiba|           1000|           33.9|               33900
                      Seagates|           1000|           36.6|               36600
                       Hitachi|           1000|           39.9|               39900
                       Toshiba|           2000|          55.99|              111980
                      WD Green|           2000|           80.7|              161400
                            WD|           3000|           69.5|              208500
                       Samsung|           3500|           81.7|              285950
                       WD Blue|           3000|           95.7|              287100
                       Samsung|           3000|          120.5|              361500
                        WD Red|           4000|          120.7|              482800
                            WD|           5000|          99.99|              499950
                       Hitachi|           5000|            170|              850000
                       Samsung|           6000|         169.36|             1016160
                       Samsung|          10000|          249.6|             2496000
                       Samsung|          10000|         250.59|             2505900
                       Hitachi|          16000|          356.3|             5700800
          Seagates IronWoldPRO|          16000|         489.79|             7836640
                      WD Black|          20000|         879.69|            17593800
